Customer-Segmentation.knit
…
## tibble [50 x 5] (S3: tbl_df/tbl/data.frame)
##  $ Advertisement Spend : num [1:50] 165349 162598 153442 144372 142107 ...
##  $ Promotion Spend     : num [1:50] 136898 151378 101146 118672 91392 ...
##  $ Administration Spend: num [1:50] 471784 443899 407935 383200 366168 ...
##  $ State               : chr [1:50] "New York" "California" "Florida" "New York" ...
##  $ Profit              : num [1:50] 192262 191792 191050 182902 166188 ...

The data has 50 observations and 5 variables. 4 of the variables are numeric and 1 is character

#checking for distinct values in the data:
unique(data)

## # A tibble: 50 x 5
##    `Advertisement Spend` `Promotion Spend` `Administration Spend` State   Profit
##                    <dbl>             <dbl>                  <dbl> <chr>    <dbl>
##  1               165349.           136898.                471784. New Yo~ 1.92e5
##  2               162598.           151378.                443899. Califo~ 1.92e5
##  3               153442.           101146.                407935. Florida 1.91e5
##  4               144372.           118672.                383200. New Yo~ 1.83e5
##  5               142107.            91392.                366168. Florida 1.66e5
##  6               131877.            99815.                362861. New Yo~ 1.57e5
##  7               134615.           147199.                127717. Califo~ 1.56e5
##  8               130298.           145530.                323877. Florida 1.56e5
##  9               120543.           148719.                311613. New Yo~ 1.52e5
## 10               123335.           108679.                304982. Califo~ 1.50e5
## # ... with 40 more rows
…
